…
# It has different types of prediction, like numeric, class and prob
predict(model_rec, mtcars, type = 'numeric')
#> # A tibble: 32 x 1
#>    .pred
#>    <dbl>
#>  1  21.5
#>  2  21.1
#>  3  26.1
#>  4  19.6
#>  5  17.1
#>  6  19.3
#>  7  15.4
#>  8  22.2
#>  9  22.8
#> 10  19.9
#> # … with 22 more rows
```
